%YAML 1.1
%TAG !u! tag:unity3d.com,2011:
--- !u!114 &11400000
MonoBehaviour:
  m_ObjectHideFlags: 0
  m_CorrespondingSourceObject: {fileID: 0}
  m_PrefabInstance: {fileID: 0}
  m_PrefabAsset: {fileID: 0}
  m_GameObject: {fileID: 0}
  m_Enabled: 1
  m_EditorHideFlags: 0
  m_Script: {fileID: 11500000, guid: e9620f8c34305754d8cc9a7e49e852d9, type: 3}
  m_Name: WETER_ru
  m_EditorClassIdentifier: 
  m_LocaleId:
    m_Code: ru
  m_SharedData: {fileID: 11400000, guid: 995553197b71f8a43bb2437a7814b239, type: 2}
  m_Metadata:
    m_Items: []
  m_TableData:
  - m_Id: 180364361728
    m_Localized: "\u041F\u0440\u0438\u0432\u0435\u0442"
    m_Metadata:
      m_Items: []
  - m_Id: 22663280836608
    m_Localized: "\u0417\u0434\u0430\u043D\u0438\u0435, \u0441\u043F\u043E\u0441\u043E\u0431\u043D\u043E\u0435
      \u043F\u0440\u043E\u0438\u0437\u0432\u043E\u0434\u0438\u0442\u044C \u044D\u043B\u0435\u043A\u0442\u0440\u043E\u044D\u043D\u0435\u0440\u0433\u0438\u044E
      \u0432 \u043E\u0431\u044A\u0435\u043C\u0435 \u0434\u043E <size=40><b>200%</b></size>\n\u043E\u0442
      \u0441\u043E\u0431\u0441\u0442\u0432\u0435\u043D\u043D\u044B\u0445 \u043F\u043E\u0442\u0440\u0435\u0431\u043D\u043E\u0441\u0442\u0435\u0439. "
    m_Metadata:
      m_Items: []
  references:
    version: 1
