%YAML 1.1
%TAG !u! tag:unity3d.com,2011:
--- !u!21 &2100000
Material:
  serializedVersion: 6
  m_ObjectHideFlags: 0
  m_CorrespondingSourceObject: {fileID: 0}
  m_PrefabInstance: {fileID: 0}
  m_PrefabAsset: {fileID: 0}
  m_Name: AN_Broadleaf_Leaves_1
  m_Shader: {fileID: 4800000, guid: 0154318cd2c5a3747a66420b5d885dd5, type: 3}
  m_ShaderKeywords: _COLOR2ENABLE_ON _COLOR2OVERLAYTYPE_VERTEX_POSITION_BASED _COLOR2_ON
    _ENABLECOLOR2_ON _KEYWORD0_ON _SNOWOVERLAYTYPE_WORLD_NORMAL_BASED _TREETYPE_BROADLEAF
    _WIND_ON
  m_LightmapFlags: 4
  m_EnableInstancingVariants: 0
  m_DoubleSidedGI: 0
  m_CustomRenderQueue: -1
  stringTagMap: {}
  disabledShaderPasses: []
  m_SavedProperties:
    serializedVersion: 3
    m_TexEnvs:
    - TextureSample1:
        m_Texture: {fileID: 2800000, guid: 16d574e53541bba44a84052fa38778df, type: 3}
        m_Scale: {x: 1, y: 1}
        m_Offset: {x: 0, y: 0}
    - _BumpMap:
        m_Texture: {fileID: 0}
        m_Scale: {x: 1, y: 1}
        m_Offset: {x: 0, y: 0}
    - _CoverageTexture:
        m_Texture: {fileID: 0}
        m_Scale: {x: 1, y: 1}
        m_Offset: {x: 0, y: 0}
    - _DetailAlbedoMap:
        m_Texture: {fileID: 0}
        m_Scale: {x: 1, y: 1}
        m_Offset: {x: 0, y: 0}
    - _DetailMask:
        m_Texture: {fileID: 0}
        m_Scale: {x: 1, y: 1}
        m_Offset: {x: 0, y: 0}
    - _DetailNormalMap:
        m_Texture: {fileID: 0}
        m_Scale: {x: 1, y: 1}
        m_Offset: {x: 0, y: 0}
    - _EmissionMap:
        m_Texture: {fileID: 0}
        m_Scale: {x: 1, y: 1}
        m_Offset: {x: 0, y: 0}
    - _LeavesTexture:
        m_Texture: {fileID: 2800000, guid: 2f80b337770c89c45a1df52df1a8dfed, type: 3}
        m_Scale: {x: 1, y: 1}
        m_Offset: {x: 0, y: 0}
    - _MainTex:
        m_Texture: {fileID: 0}
        m_Scale: {x: 1, y: 1}
        m_Offset: {x: 0, y: 0}
    - _MetallicGlossMap:
        m_Texture: {fileID: 0}
        m_Scale: {x: 1, y: 1}
        m_Offset: {x: 0, y: 0}
    - _OcclusionMap:
        m_Texture: {fileID: 0}
        m_Scale: {x: 1, y: 1}
        m_Offset: {x: 0, y: 0}
    - _ParallaxMap:
        m_Texture: {fileID: 0}
        m_Scale: {x: 1, y: 1}
        m_Offset: {x: 0, y: 0}
    - _SnowMask:
        m_Texture: {fileID: 2800000, guid: 16d574e53541bba44a84052fa38778df, type: 3}
        m_Scale: {x: 0.2, y: 0.2}
        m_Offset: {x: 0, y: 0}
    - _SnowTexture:
        m_Texture: {fileID: 0}
        m_Scale: {x: 1, y: 1}
        m_Offset: {x: 0, y: 0}
    - _Texture0:
        m_Texture: {fileID: 0}
        m_Scale: {x: 1, y: 1}
        m_Offset: {x: 0, y: 0}
    - _Texture00:
        m_Texture: {fileID: 2800000, guid: 2f80b337770c89c45a1df52df1a8dfed, type: 3}
        m_Scale: {x: 1, y: 1}
        m_Offset: {x: 0, y: 0}
    - _Texture1:
        m_Texture: {fileID: 2800000, guid: 16d574e53541bba44a84052fa38778df, type: 3}
        m_Scale: {x: 1, y: 1}
        m_Offset: {x: 0, y: 0}
    - _Texture2:
        m_Texture: {fileID: 2800000, guid: 16d574e53541bba44a84052fa38778df, type: 3}
        m_Scale: {x: 1, y: 1}
        m_Offset: {x: 0, y: 0}
    - _TextureSample0:
        m_Texture: {fileID: 0}
        m_Scale: {x: 1, y: 1}
        m_Offset: {x: 0, y: 0}
    - _texcoord:
        m_Texture: {fileID: 0}
        m_Scale: {x: 1, y: 1}
        m_Offset: {x: 0, y: 0}
    m_Floats:
    - LOD_FADE_CROSSFADE1: 0
    - LOD_FADE_CROSSFADE2: 0
    - _BumpScale: 1
    - _COLOR2: 1
    - _Color2: 0
    - _Color2Enable: 1
    - _Color2Fade: -0.21
    - _Color2Int: 0.15
    - _Color2Intensity: 0.1
    - _Color2Level: -8.07
    - _Color2OverlayType: 0
    - _Color2Power: 0.975
    - _Color2__________: 0
    - _Cutoff: 0.35
    - _DetailNormalMapScale: 1
    - _DstBlend: 0
    - _EnableColor2: 1
    - _Fixthebaseoffoliage: 0
    - _GlossMapScale: 1
    - _Glossiness: 0
    - _GlossyReflections: 1
    - _InvertColor2: 0
    - _Keyword0: 1
    - _Metallic: 0
    - _Mode: 0
    - _OcclusionStrength: 1
    - _Parallax: 0.02
    - _SNOW: 0
    - _Smoothness: 0.2
    - _SmoothnessTextureChannel: 0
    - _Snow: 0
    - _SnowAmount: 0.3
    - _SnowFade: 0.1
    - _SnowLevel: 0.5
    - _SnowOverlayType: 0
    - _Snow__________: 0
    - _SpecularHighlights: 1
    - _SrcBlend: 1
    - _TransAmbient: 0.3
    - _TransDirect: 1
    - _TransNormalDistortion: 0
    - _TransScattering: 1
    - _TransShadow: 1
    - _Translucency: 2
    - _TreeType: 0
    - _UVSec: 0
    - _WIND: 1
    - _Wind: 1
    - _WindForce: 0.327
    - _WindSpeed: 0.5
    - _WindWavesScale: 0.25
    - _Wind__________: 1
    - _ZWrite: 1
    - _____SNOW_____: 0
    - __dirty: 0
    m_Colors:
    - _Color: {r: 1, g: 1, b: 1, a: 1}
    - _Color1: {r: 0.0627451, g: 0.35686275, b: 0.098039225, a: 0}
    - _Color2: {r: 1, g: 0.8874893, b: 0, a: 0}
    - _CoverageColor: {r: 1, g: 1, b: 1, a: 0}
    - _EmissionColor: {r: 0, g: 0, b: 0, a: 0}
    - _SnowColor: {r: 1, g: 1, b: 1, a: 0}
  m_BuildTextureStacks: []
