%YAML 1.1
%TAG !u! tag:unity3d.com,2011:
--- !u!1 &7880780733996559613
GameObject:
  m_ObjectHideFlags: 0
  m_CorrespondingSourceObject: {fileID: 0}
  m_PrefabInstance: {fileID: 0}
  m_PrefabAsset: {fileID: 0}
  serializedVersion: 6
  m_Component:
  - component: {fileID: 7880780733996559491}
  - component: {fileID: 7880780733996559490}
  m_Layer: 0
  m_Name: PropCollection
  m_TagString: Untagged
  m_Icon: {fileID: 0}
  m_NavMeshLayer: 0
  m_StaticEditorFlags: 0
  m_IsActive: 1
--- !u!4 &7880780733996559491
Transform:
  m_ObjectHideFlags: 0
  m_CorrespondingSourceObject: {fileID: 0}
  m_PrefabInstance: {fileID: 0}
  m_PrefabAsset: {fileID: 0}
  m_GameObject: {fileID: 7880780733996559613}
  m_LocalRotation: {x: 0, y: 0, z: 0, w: 1}
  m_LocalPosition: {x: 0, y: 0, z: 0}
  m_LocalScale: {x: 1, y: 1, z: 1}
  m_Children: []
  m_Father: {fileID: 0}
  m_RootOrder: 0
  m_LocalEulerAnglesHint: {x: 0, y: 0, z: 0}
--- !u!114 &7880780733996559490
MonoBehaviour:
  m_ObjectHideFlags: 0
  m_CorrespondingSourceObject: {fileID: 0}
  m_PrefabInstance: {fileID: 0}
  m_PrefabAsset: {fileID: 0}
  m_GameObject: {fileID: 7880780733996559613}
  m_Enabled: 1
  m_EditorHideFlags: 0
  m_Script: {fileID: 11500000, guid: e7b50de3a32099748ae7864fd40eba13, type: 3}
  m_Name: 
  m_EditorClassIdentifier: 
  Templets:
  - Object: {fileID: 1544799908866256065, guid: 2d2bfe7ae2212d84ab980201cd12dd8f, type: 3}
    Icon: {fileID: 21300000, guid: 717d9135989ef49a496559a5bc38e42b, type: 3}
    Name: "\u0417\u0434\u0430\u043D\u0438\u0435"
  - Object: {fileID: 2559776274254674533, guid: b38be14c063e3ff4d886fb76def34e4a, type: 3}
    Icon: {fileID: 21300000, guid: 717d9135989ef49a496559a5bc38e42b, type: 3}
    Name: W.E.T.E.R #1
  - Object: {fileID: 8737400301345527805, guid: 85ad81f8594425d4baeab560e678ad9d, type: 3}
    Icon: {fileID: 21300000, guid: 9a1062e7e665a7c4f871d1917bf0b03a, type: 3}
    Name: "\u0412\u0435\u0442\u0435\u0440"
