%YAML 1.1
%TAG !u! tag:unity3d.com,2011:
--- !u!114 &11400000
MonoBehaviour:
  m_ObjectHideFlags: 0
  m_CorrespondingSourceObject: {fileID: 0}
  m_PrefabInstance: {fileID: 0}
  m_PrefabAsset: {fileID: 0}
  m_GameObject: {fileID: 0}
  m_Enabled: 1
  m_EditorHideFlags: 0
  m_Script: {fileID: 11500000, guid: bbb281ee3bf0b054c82ac2347e9e782c, type: 3}
  m_Name: Localization-Locales
  m_EditorClassIdentifier: 
  m_GroupName: Localization-Locales
  m_Data:
    m_SerializedData: []
  m_GUID: 359c882465fd86c46bcf6346044fa653
  m_SerializeEntries:
  - m_GUID: bec9aab2cccd6fa41ad2978a3e3aa22e
    m_Address: English (en)
    m_ReadOnly: 1
    m_SerializedLabels:
    - Locale
  - m_GUID: 017a7653ca5036d45a76d9aeea9cb4cf
    m_Address: Russian (ru)
    m_ReadOnly: 1
    m_SerializedLabels:
    - Locale
  m_ReadOnly: 1
  m_Settings: {fileID: 11400000, guid: 78550bde683bd304cb5a4c3679416cc1, type: 2}
  m_SchemaSet:
    m_Schemas:
    - {fileID: 11400000, guid: 22ec6286997be914b81403bffe45fe27, type: 2}
    - {fileID: 11400000, guid: 21c5499b210cc794c8755e8e15dc0b3f, type: 2}
